{
"type": "FeatureCollection",
"name": "license",
"crs": { "type": "name", "properties": { "name": "urn:ogc:def:crs:OGC:1.3:CRS84" } },
"features": [{"type":"GeometryCollection", "geometries": [
{"type":"Point","coordinates":[87.93321481800007,26.61908334900005,0,-1.7976931348623157e+308]},
{"type":"Point","coordinates":[88.07351534600008,26.979207377000023,0,-1.7976931348623157e+308]},
{"type":"Point","coordinates":[86.54761229100006,27.732472734000055,0,-1.7976931348623157e+308]},
{"type":"Point","coordinates":[85.09035456300006,27.832101152000064,0,-1.7976931348623157e+308]},
{"type":"Point","coordinates":[83.97070067000004,28.20201224400006,0,-1.7976931348623157e+308]},
{"type":"Point","coordinates":[82.53544490800004,28.332952035000062,0,-1.7976931348623157e+308]},
{"type":"Point","coordinates":[82.19349615100003,28.61699887700007,0,-1.7976931348623157e+308]},
{"type":"Point","coordinates":[80.50989677100006,28.98555523400006,0,-1.7976931348623157e+308]}
]}]}