{"type":"GeometryCollection", "geometries": [
{"type":"Point","coordinates":[86.05698196400004,27.381714703000057,0,-1.7976931348623157e+308]},
{"type":"Point","coordinates":[85.40513354900008,27.66751071400006,0,-1.7976931348623157e+308]},
{"type":"Point","coordinates":[85.31991136900007,27.64667154400007,0,-1.7976931348623157e+308]},
{"type":"Point","coordinates":[85.29894024900005,27.717144760000053,0,-1.7976931348623157e+308]},
{"type":"Point","coordinates":[85.33590977100005,27.749708191000025,0,-1.7976931348623157e+308]},
{"type":"Point","coordinates":[83.41429143900007,27.594253645000038,0,-1.7976931348623157e+308]},
{"type":"Point","coordinates":[82.13949227500007,27.75923995100004,0,-1.7976931348623157e+308]},
{"type":"Point","coordinates":[81.34348218600007,28.291729630000077,0,-1.7976931348623157e+308]},
{"type":"Point","coordinates":[88.08419891800008,26.55612175300007,0,-1.7976931348623157e+308]},
{"type":"Point","coordinates":[87.27252967400005,26.528145834000043,0,-1.7976931348623157e+308]}
]}